{
  "collectionName": "components_currency_prices",
  "info": {
    "name": "Price",
    "icon": "money-bill-wave"
  },
  "options": {},
  "attributes": {
    "currency": {
      "type": "string"
    },
    "price": {
      "type": "decimal"
    }
  }
}
